[[ 49   1   0  15   6   2   0   0   4   2   7   4   0  11   2   3   0]
 [  6  10   5   2  12   4   4   0   7   1   2   3   4   5   6   0   2]
 [  3   9  12   1  19   5   3   0   5   2   1  11   8   3  26   0   3]
 [  1   4   0 276   5   0   0   0   3   0   1   0   0   1   0   0   0]
 [  7   5   5   6  96   9   4   0  18   0   8  17  15  14  11   2   2]
 [  6   6   1   4  12  18   2   0   5   2   1   4  15   3  10   1   3]
 [  4   4   6   3   3   4   4   0   5   0   0   9   5   3  14   0   4]
 [  1   0   0   0   0   2   0   0   0   0   1   2   1   1   2   0   0]
 [  4  10   5  11  25   3   2   0  43   0   2   6   0  22   9   2   1]
 [  2   0   1   0   6   4   0   0   1   9  10   2   5   4  10  10   2]
 [  5   1   3   8  10   2   2   0   1   5  56   2   6   7   2  11   0]
 [  1   6   5   3  24   5   1   0   6   2   5  36   9  14  20   5   2]
 [  2   2   4   2  15   8   2   0   3   2   8  14  56   1  14   2   1]
 [ 12   5   1   7  32   4   0   0  24   2   9   9   9  42   1   2   1]
 [  0   4  11   2  13   3   6   0   1   0   3  14  11   5  52   2   6]
 [  1   0   1   7  10   4   0   0   0  12  20   9   6   9   3   5   0]
 [  0   0   4   2  23   6   1   0   2   2   5  13   9   5  24   0   9]]
